…
# Loading the Data
The dataset for this project is `fuel.csv`, which contains fuel economy data produced during vehicle testing from the 1984-2017. 


```r
fuel_raw <- read_csv("../data/project-01/fuel.csv")
fuel_raw
```

```
## # A tibble: 38,113 x 81
##    vehicle_id  year make    model   class   drive  transmission transmission_ty~
##         <dbl> <dbl> <chr>   <chr>   <chr>   <chr>  <chr>        <chr>           
##  1      26587  1984 Alfa R~ GT V6 ~ Minico~ <NA>   Manual 5-Sp~ <NA>            
##  2      27705  1984 Alfa R~ GT V6 ~ Minico~ <NA>   Manual 5-Sp~ <NA>            
##  3      26561  1984 Alfa R~ Spider~ Two Se~ <NA>   Manual 5-Sp~ <NA>            
##  4      27681  1984 Alfa R~ Spider~ Two Se~ <NA>   Manual 5-Sp~ <NA>            
##  5      27550  1984 AM Gen~ DJ Po ~ Specia~ 2-Whe~ Automatic 3~ <NA>            
##  6      28426  1984 AM Gen~ DJ Po ~ Specia~ 2-Whe~ Automatic 3~ <NA>            
##  7      27549  1984 AM Gen~ FJ8c P~ Specia~ 2-Whe~ Automatic 3~ <NA>            
##  8      28425  1984 AM Gen~ FJ8c P~ Specia~ 2-Whe~ Automatic 3~ <NA>            
##  9      27593  1984 Americ~ Eagle ~ Specia~ 4-Whe~ Automatic 3~ <NA>            
## 10      28455  1984 Americ~ Eagle ~ Specia~ 4-Whe~ Automatic 3~ <NA>            
## # ... with 38,103 more rows, and 73 more variables: engine_index <dbl>,
## #   engine_descriptor <chr>, engine_cylinders <dbl>, engine_displacement <dbl>,
## #   turbocharger <lgl>, supercharger <lgl>, fuel_type <chr>, fuel_type_1 <chr>,
## #   fuel_type_2 <lgl>, city_mpg_ft1 <dbl>, unrounded_city_mpg_ft1 <dbl>,
## #   city_mpg_ft2 <dbl>, unrounded_city_mpg_ft2 <dbl>,
## #   city_gasoline_consumption_cd <dbl>, city_electricity_consumption <dbl>,
## #   city_utility_factor <dbl>, highway_mpg_ft1 <dbl>, ...
```
…
<p style='text-align: justify;'>For my final graph I wanted to see the trend in CO~2~ emissions through the years. With this analysis I want to see which vehicle can be considered overall the most environmentally friendly.</p>



```r
emissions_by_year <- fuel_raw %>%
  count(year, tailpipe_co2_in_grams_mile_ft1) %>%
  group_by(year) 

emissions_by_year
```

```
## # A tibble: 2,911 x 3
## # Groups:   year [34]
##     year tailpipe_co2_in_grams_mile_ft1     n
##    <dbl>                          <dbl> <int>
##  1  1984                           217.     1
##  2  1984                           228.     1
##  3  1984                           247.     1
##  4  1984                           248.     1
##  5  1984                           254.     1
##  6  1984                           254.     1
##  7  1984                           261.     2
##  8  1984                           261.     5
##  9  1984                           268.     3
## 10  1984                           269.     3
## # ... with 2,901 more rows
```
…
