…
---

# Creating an Interactive Plot


```r
summer_hits = read_csv("../data/project-02/all_billboard_summer_hits.csv")
summer_hits
```

```
## # A tibble: 600 x 22
##    danceability energy key   loudness mode  speechiness acousticness
##           <dbl>  <dbl> <chr>    <dbl> <chr>       <dbl>        <dbl>
##  1        0.518  0.06  A#      -14.9  major      0.0441        0.987
##  2        0.543  0.332 C       -11.6  major      0.0317        0.669
##  3        0.541  0.676 C        -7.99 major      0.135         0.188
##  4        0.408  0.397 A       -12.5  major      0.03          0.873
##  5        0.554  0.189 E       -14.3  major      0.0279        0.915
##  6        0.679  0.279 G       -10.4  major      0.0384        0.645
##  7        0.663  0.619 F#       -5.73 major      0.0334        0.336
##  8        0.684  0.556 B       -10.6  major      0.0377        0.468
##  9        0.645  0.943 C        -1.53 major      0.0393        0.385
## 10        0.388  0.434 G       -12.0  major      0.0354        0.789
## # ... with 590 more rows, and 15 more variables: instrumentalness <dbl>,
## #   liveness <dbl>, valence <dbl>, tempo <dbl>, track_uri <chr>,
## #   duration_ms <dbl>, time_signature <dbl>, key_mode <chr>,
## #   playlist_name <chr>, playlist_img <chr>, track_name <chr>,
## #   artist_name <chr>, album_name <chr>, album_img <chr>, year <dbl>
```
…
---

# Creating a Spatial Visualization

<p style='text-align: justify;font-family:verdana'>Since the data I had used for the interactive plot would have made it extremely difficult for me to create a spatial visualization, I went ahead and downloaded another CSV that contains data on the 2017 Boston Marathon. With this, I wanted to look at the representation of different countries in the race, and which countries were represented more and which were represented less. There were no other graphs I had intended to use aside from displaying the proportions of runners from each participating country on a world map.</p>


```r
# To create a spatial visualization, I'll be using a new .csv file
marathon = read_csv("../data/project-02/marathon_results_2017.csv")
marathon
```

```
## # A tibble: 26,410 x 22
##    Bib   Name      Age `M/F` City    State Country `5K`  `10K` `15K` `20K` Half 
##    <chr> <chr>   <dbl> <chr> <chr>   <chr> <chr>   <chr> <chr> <chr> <chr> <chr>
##  1 11    Kirui,~    24 M     Kering~ <NA>  KEN     0:15~ 0:30~ 0:45~ 1:01~ 1:04~
##  2 17    Rupp, ~    30 M     Portla~ OR    USA     0:15~ 0:30~ 0:45~ 1:01~ 1:04~
##  3 23    Osako,~    25 M     Machid~ <NA>  JPN     0:15~ 0:30~ 0:45~ 1:01~ 1:04~
##  4 21    Biwott~    32 M     Mammot~ CA    USA     0:15~ 0:30~ 0:45~ 1:01~ 1:04~
##  5 9     Chebet~    31 M     Marakw~ <NA>  KEN     0:15~ 0:30~ 0:45~ 1:01~ 1:04~
##  6 15    Abdira~    40 M     Phoenix AZ    USA     0:15~ 0:30~ 0:45~ 1:01~ 1:04~
##  7 63    Maiyo,~    33 M     Colora~ CO    USA     0:15~ 0:30~ 0:45~ 1:01~ 1:04~
##  8 7     Sefir,~    28 M     Addis ~ <NA>  ETH     0:15~ 0:30~ 0:46~ 1:02~ 1:06~
##  9 18    Pusked~    27 M     Eugene  OR    USA     0:15~ 0:30~ 0:45~ 1:01~ 1:04~
## 10 20    Ward, ~    28 M     Kaysvi~ UT    USA     0:15~ 0:30~ 0:45~ 1:01~ 1:04~
## # ... with 26,400 more rows, and 10 more variables: 25K <chr>, 30K <chr>,
## #   35K <chr>, 40K <chr>, Pace <chr>, Proj Time <chr>, Official Time <chr>,
## #   Overall <dbl>, Gender <dbl>, Division <dbl>
```
```r
# I'll also be using the following shape file
world_shapes <- read_sf("../data/ne_110m_admin_0_countries/ne_110m_admin_0_countries.shp")
```

<p style='font-family:verdana;'>First, I want to make sure that I can join the countries in both the CSV file and the shape file, I'll do this by changing the column name for the Country column in the CSV file to match the shape file.</p>


```r
colnames(marathon)[7] <- "ISO_A3"
marathon
```

```
## # A tibble: 26,410 x 22
##    Bib   Name      Age `M/F` City    State ISO_A3 `5K`   `10K` `15K` `20K` Half 
##    <chr> <chr>   <dbl> <chr> <chr>   <chr> <chr>  <chr>  <chr> <chr> <chr> <chr>
##  1 11    Kirui,~    24 M     Kering~ <NA>  KEN    0:15:~ 0:30~ 0:45~ 1:01~ 1:04~
##  2 17    Rupp, ~    30 M     Portla~ OR    USA    0:15:~ 0:30~ 0:45~ 1:01~ 1:04~
##  3 23    Osako,~    25 M     Machid~ <NA>  JPN    0:15:~ 0:30~ 0:45~ 1:01~ 1:04~
##  4 21    Biwott~    32 M     Mammot~ CA    USA    0:15:~ 0:30~ 0:45~ 1:01~ 1:04~
##  5 9     Chebet~    31 M     Marakw~ <NA>  KEN    0:15:~ 0:30~ 0:45~ 1:01~ 1:04~
##  6 15    Abdira~    40 M     Phoenix AZ    USA    0:15:~ 0:30~ 0:45~ 1:01~ 1:04~
##  7 63    Maiyo,~    33 M     Colora~ CO    USA    0:15:~ 0:30~ 0:45~ 1:01~ 1:04~
##  8 7     Sefir,~    28 M     Addis ~ <NA>  ETH    0:15:~ 0:30~ 0:46~ 1:02~ 1:06~
##  9 18    Pusked~    27 M     Eugene  OR    USA    0:15:~ 0:30~ 0:45~ 1:01~ 1:04~
## 10 20    Ward, ~    28 M     Kaysvi~ UT    USA    0:15:~ 0:30~ 0:45~ 1:01~ 1:04~
## # ... with 26,400 more rows, and 10 more variables: 25K <chr>, 30K <chr>,
## #   35K <chr>, 40K <chr>, Pace <chr>, Proj Time <chr>, Official Time <chr>,
## #   Overall <dbl>, Gender <dbl>, Division <dbl>
```
…
---

# Visualization of a Model

<p style='text-align: justify;font-family:verdana'>Since I have already used two different CSVs, I decided to go ahead and download a third one. This one contains data on births in the U.S from 2000 to 2014. Since June is my birth month, <b>_I wanted to look at the birth trends in June_</b> within the time that this data was collected. Unfortunately, this data started being collected after 1999, the year I was born.</p>


```r
df = read_csv("../data/project-02/us_births_00_14.csv")
df
```

```
## # A tibble: 5,479 x 6
##     year month date_of_month date       day_of_week births
##    <dbl> <dbl>         <dbl> <date>     <chr>        <dbl>
##  1  2000     1             1 2000-01-01 Sat           9083
##  2  2000     1             2 2000-01-02 Sun           8006
##  3  2000     1             3 2000-01-03 Mon          11363
##  4  2000     1             4 2000-01-04 Tues         13032
##  5  2000     1             5 2000-01-05 Wed          12558
##  6  2000     1             6 2000-01-06 Thurs        12466
##  7  2000     1             7 2000-01-07 Fri          12516
##  8  2000     1             8 2000-01-08 Sat           8934
##  9  2000     1             9 2000-01-09 Sun           7949
## 10  2000     1            10 2000-01-10 Mon          11668
## # ... with 5,469 more rows
```
…
